Python in RNotebooks
…
Tidy'ing, tokenizing,

original_books <- austen_books() %>% group_by(book) %>% 
    mutate(linenumber = row_number(), chapter = cumsum(str_detect(text, 
        regex("^chapter [\\divxlc]", ignore_case = TRUE)))) %>% 
    ungroup()

# original_books

tidy_books <- original_books %>% unnest_tokens(word, text)

tidy_books

## # A tibble: 725,055 x 4
##                   book linenumber chapter        word
##                 <fctr>      <int>   <int>       <chr>
##  1 Sense & Sensibility          1       0       sense
##  2 Sense & Sensibility          1       0         and
##  3 Sense & Sensibility          1       0 sensibility
##  4 Sense & Sensibility          3       0          by
##  5 Sense & Sensibility          3       0        jane
##  6 Sense & Sensibility          3       0      austen
##  7 Sense & Sensibility          5       0        1811
##  8 Sense & Sensibility         10       1     chapter
##  9 Sense & Sensibility         10       1           1
## 10 Sense & Sensibility         13       1         the
## # ... with 725,045 more rows

# remove stop words

data(stop_words)

tidy_books %>% count(word, sort = TRUE)

## # A tibble: 14,520 x 2
##     word     n
##    <chr> <int>
##  1   the 26351
##  2    to 24044
##  3   and 22515
##  4    of 21178
##  5     a 13408
##  6   her 13055
##  7     i 12006
##  8    in 11217
##  9   was 11204
## 10    it 10234
## # ... with 14,510 more rows

tidy_books <- tidy_books %>% anti_join(stop_words)

tidy_books %>% count(word, sort = TRUE)

## # A tibble: 13,914 x 2
##      word     n
##     <chr> <int>
##  1   miss  1855
##  2   time  1337
##  3  fanny   862
##  4   dear   822
##  5   lady   817
##  6    sir   806
##  7    day   797
##  8   emma   787
##  9 sister   727
## 10  house   699
## # ... with 13,904 more rows
…
